yolos/1.jpg
yolos/2.jpg
yolos/3.jpg
yolos/4.jpg
yolos/5.png
yolos/6.jpg
yolos/7.jpg
yolos/8.jpg
yolos/9.jpg
yolos/10.jpg
yolos/11.jpg
yolos/12.jpg
yolos/14.jpg
yolos/16.png
yolos/18.png
yolos/19.png
yolos/20.jpg
yolos/21.jpg
yolos/23.jpg
yolos/24.jpg
yolos/26.jpg
yolos/27.jpg
yolos/28.jpg
yolos/29.jpg
yolos/30.jpg
yolos/31.jpg
yolos/32.jpg
yolos/33.jpg
yolos/34.jpg
yolos/35.jpg
yolos/36.jpg
yolos/37.jpg
yolos/38.jpg
yolos/39.jpg
yolos/40.jpg
yolos/42.jpg
yolos/43.jpg
yolos/44.jpg
yolos/45.jpg
yolos/46.jpg
yolos/47.jpg
yolos/48.jpg
yolos/49.jpg
yolos/50.jpg
yolos/51.jpg
yolos/52.jpg
yolos/53.jpg
yolos/54.jpg
yolos/55.jpg
yolos/56.jpg
yolos/57.jpg
yolos/58.jpg
yolos/59.jpg
yolos/60.jpg
yolos/62.jpg
yolos/63.jpg
yolos/64.jpg
yolos/65.jpg
yolos/66.jpg
yolos/67.jpg
yolos/68.jpg
yolos/69.jpg
yolos/70.jpg
yolos/71.PNG
yolos/72.PNG
yolos/73.jpg
yolos/74.jpg
yolos/75.jpg
yolos/76.PNG
yolos/77.PNG
yolos/78.PNG
yolos/79.PNG
yolos/80.PNG
yolos/81.PNG
yolos/82.PNG
yolos/83.PNG
yolos/84.PNG
yolos/86.PNG
yolos/87.PNG
yolos/88.PNG
yolos/89.PNG
yolos/90.PNG
yolos/91.PNG
yolos/92.PNG
yolos/93.PNG
yolos/94.PNG
yolos/95.PNG
yolos/96.PNG
yolos/97.PNG
yolos/98.PNG
yolos/99.PNG
yolos/100.PNG
yolos/101.PNG
yolos/102.PNG
yolos/103.PNG
yolos/104.PNG
yolos/105.PNG
yolos/106.PNG
yolos/107.PNG
yolos/108.PNG
yolos/109.PNG
yolos/110.PNG
yolos/111.PNG
yolos/112.PNG
yolos/113.PNG
yolos/114.PNG
yolos/115.PNG
yolos/116.PNG
yolos/117.PNG
yolos/118.PNG
yolos/119.PNG
yolos/120.PNG
yolos/121.PNG
yolos/122.PNG
yolos/123.PNG
yolos/124.PNG
yolos/125.PNG
yolos/126.PNG
yolos/127.PNG
yolos/128.PNG
yolos/129.PNG
yolos/130.PNG
yolos/131.PNG
yolos/132.PNG
yolos/133.PNG
yolos/134.PNG
yolos/135.PNG
yolos/136.PNG
yolos/137.PNG
yolos/138.PNG
yolos/139.PNG
yolos/140.PNG
yolos/141.PNG
yolos/142.PNG
yolos/143.PNG
yolos/144.PNG
yolos/145.PNG
yolos/146.PNG
yolos/147.PNG
yolos/148.jpg
yolos/149.PNG
yolos/150.PNG
yolos/151.PNG
yolos/152.PNG
yolos/153.PNG
yolos/154.PNG
yolos/155.PNG
yolos/156.PNG
yolos/157.PNG
yolos/158.PNG
yolos/159.PNG
yolos/160.PNG
yolos/161.PNG
yolos/162.PNG
yolos/163.PNG
yolos/164.PNG
yolos/165.PNG
yolos/166.PNG
yolos/167.PNG
yolos/168.PNG
yolos/169.PNG
yolos/170.PNG
yolos/171.PNG
yolos/172.PNG
yolos/173.PNG